spi_reg_controller_tb.vcd
$date
	Wed May 27 08:13:43 2026
$end
$version
	Icarus Verilog
$end
$timescale
	1ps
$end
$scope module spi_reg_controller_tb $end
$var wire 1 ! i_sclk $end
$var wire 1 " i_sclk_neg $end
$var wire 1 # wavegen_cmd_reg $end
$var wire 8 $ o_wr_data [7:0] $end
$var wire 1 % o_wr $end
$var wire 1 & o_wavegen_wr $end
$var wire 1 ' o_wavegen_rd $end
$var wire 1 ( o_rd $end
$var wire 1 ) o_nirs_wr $end
$var wire 1 * o_nirs_rd $end
$var wire 1 + o_miso1 $end
$var wire 1 , o_miso $end
$var wire 1 - o_imeas_intr_clr $end
$var wire 1 . o_dual_wr $end
$var wire 1 / o_dual_en $end
$var wire 8 0 o_addr [7:0] $end
$var wire 1 1 nirs_cmd_reg $end
$var parameter 32 2 ADDR_WIDTH $end
$var parameter 8 3 CMD_DUAL_ENABLE $end
$var parameter 8 4 CMD_D_BURST_RD $end
$var parameter 8 5 CMD_D_BURST_WR $end
$var parameter 8 6 CMD_D_NIRS_RD $end
$var parameter 8 7 CMD_D_NIRS_WR $end
$var parameter 8 8 CMD_D_RD $end
$var parameter 8 9 CMD_D_RDATA $end
$var parameter 8 : CMD_D_RDATAC $end
$var parameter 8 ; CMD_D_WG_RD $end
$var parameter 8 < CMD_D_WG_WR $end
$var parameter 8 = CMD_D_WR $end
$var parameter 8 > CMD_S_BURST_RD $end
$var parameter 8 ? CMD_S_BURST_WR $end
$var parameter 8 @ CMD_S_NIRS_RD $end
$var parameter 8 A CMD_S_NIRS_WR $end
$var parameter 8 B CMD_S_RD $end
$var parameter 8 C CMD_S_RDATA $end
$var parameter 8 D CMD_S_RDATAC $end
$var parameter 8 E CMD_S_WG_RD $end
$var parameter 8 F CMD_S_WG_WR $end
$var parameter 8 G CMD_S_WR $end
$var parameter 32 H DATA_WIDTH $end
$var parameter 32 I EEG_CHN_NUM $end
$var parameter 32 J SPI_CLK_HALF $end
$var reg 8 K cap_addr [7:0] $end
$var reg 1 L cap_nirs_rd $end
$var reg 1 M cap_nirs_wr $end
$var reg 1 N cap_rd $end
$var reg 1 O cap_wavegen_rd $end
$var reg 1 P cap_wavegen_wr $end
$var reg 1 Q cap_wr $end
$var reg 8 R cap_wr_data [7:0] $end
$var reg 1 S cpha $end
$var reg 1 T daisy_en $end
$var reg 1 U daisy_in $end
$var reg 5 V i_channel_max [4:0] $end
$var reg 1 W i_cs_n $end
$var reg 1 X i_mosi $end
$var reg 1 Y i_mosi1 $end
$var reg 8 Z i_rd_data [7:0] $end
$var reg 1 [ i_rst_n $end
$var reg 40 \ i_status_words [39:0] $end
$var reg 2 ] mode [1:0] $end
$var reg 1 ^ sclk $end
$var reg 8 _ xfr_rd_byte [7:0] $end
$var integer 32 ` fail_cnt [31:0] $end
$var integer 32 a idx [31:0] $end
$var integer 32 b pass_cnt [31:0] $end
$var integer 32 c test_num [31:0] $end
$var integer 32 d xfr_len [31:0] $end
$scope module dut $end
$var wire 2 e adc_inc_val [1:0] $end
$var wire 1 f bit_cnt_reset $end
$var wire 1 g burst_cmd_reg $end
$var wire 3 h chdata_size [2:0] $end
$var wire 1 i cov_int_clr $end
$var wire 1 S cpha $end
$var wire 1 T daisy_en $end
$var wire 1 U daisy_in $end
$var wire 1 j detect_first_bit $end
$var wire 1 k detect_flag $end
$var wire 1 l dual_cmd_reg $end
$var wire 5 m i_channel_max [4:0] $end
$var wire 1 W i_cs_n $end
$var wire 1 X i_mosi $end
$var wire 1 Y i_mosi1 $end
$var wire 8 n i_rd_data [7:0] $end
$var wire 1 [ i_rst_n $end
$var wire 1 ! i_sclk $end
$var wire 1 " i_sclk_neg $end
$var wire 40 o i_status_words [39:0] $end
$var wire 24 p imeas_chdata_reg [23:0] $end
$var wire 2 q mode [1:0] $end
$var wire 1 r next_dev_en $end
$var wire 1 / o_dual_en $end
$var wire 1 . o_dual_wr $end
$var wire 1 - o_imeas_intr_clr $end
$var wire 1 + o_miso1 $end
$var wire 1 s status_done $end
$var wire 1 # wavegen_cmd_reg $end
$var wire 8 t status_5th_byte [7:0] $end
$var wire 8 u status_4th_byte [7:0] $end
$var wire 8 v status_3rd_byte [7:0] $end
$var wire 8 w status_2nd_byte [7:0] $end
$var wire 8 x status_1st_byte [7:0] $end
$var wire 1 y rdatac_cmd $end
$var wire 1 z rdata_rdatac_cmd $end
$var wire 1 { rdata_cmd $end
$var wire 1 , o_miso $end
$var wire 3 | num_status_byte [2:0] $end
$var wire 1 1 nirs_cmd_reg $end
$var wire 8 } imeas_3rd_byte [7:0] $end
$var wire 8 ~ imeas_2nd_byte [7:0] $end
$var wire 8 !" imeas_1st_byte [7:0] $end
$var wire 1 "" cov_done $end
$var wire 1 #" comb_miso $end
$var wire 1 $" cmd_reg $end
$var wire 1 %" byte_done $end
$var parameter 32 &" ADDR_WIDTH $end
$var parameter 32 '" DATA_WIDTH $end
$var parameter 32 (" EEG_CHN_NUM $end
$var parameter 32 )" EEG_DATA_SIZE $end
$var reg 6 *" adc_cnt [5:0] $end
$var reg 6 +" bit_cnt [5:0] $end
$var reg 1 ," burst_mode $end
$var reg 3 -" byte_bit_count [2:0] $end
$var reg 7 ." byte_cnt [6:0] $end
$var reg 6 /" byte_cnt_tmp [5:0] $end
$var reg 7 0" byte_ptr [6:0] $end
$var reg 1 1" cmd_reg_0 $end
$var reg 1 2" cmd_reg_1 $end
$var reg 1 3" cmd_reg_4 $end
$var reg 1 4" cmd_reg_5 $end
$var reg 1 5" cmd_reg_6 $end
$var reg 1 6" cmd_reg_7 $end
$var reg 1 7" cov_done_d1 $end
$var reg 1 8" cs_n_d $end
$var reg 1 9" detect_first_bit_sync $end
$var reg 1 :" dff_miso $end
$var reg 1 ;" dff_miso1 $end
$var reg 1 <" dual_en $end
$var reg 1 =" dual_pending $end
$var reg 1 >" i_mosi1_d $end
$var reg 1 ?" i_mosi_d $end
$var reg 8 @" imeas_temp [7:0] $end
$var reg 3 A" index_cnt [2:0] $end
$var reg 1 B" latch_state $end
$var reg 1 C" next_dev_valid $end
$var reg 8 D" o_addr [7:0] $end
$var reg 1 * o_nirs_rd $end
$var reg 1 ) o_nirs_wr $end
$var reg 8 E" o_pre_addr [7:0] $end
$var reg 1 ( o_rd $end
$var reg 1 ' o_wavegen_rd $end
$var reg 1 & o_wavegen_wr $end
$var reg 1 % o_wr $end
$var reg 8 F" o_wr_data [7:0] $end
$var reg 1 G" rd_data_rdy $end
$var reg 8 H" rx_buf [7:0] $end
$var reg 8 I" shift_reg [7:0] $end
$var reg 8 J" status_temp [7:0] $end
$var reg 8 K" tx_buf [7:0] $end
$var reg 1 L" tx_d $end
$var reg 1 M" tx_d1 $end
$var integer 32 N" i [31:0] $end
$upscope $end
$scope task dual_burst_read $end
$var reg 8 O" addr [7:0] $end
$var integer 32 P" j [31:0] $end
$upscope $end
$scope task dual_burst_write $end
$var reg 8 Q" addr [7:0] $end
$var integer 32 R" j [31:0] $end
$upscope $end
$scope task dual_nirs_read $end
$var reg 8 S" addr [7:0] $end
$upscope $end
$scope task dual_nirs_write $end
$var reg 8 T" addr [7:0] $end
$var reg 8 U" data [7:0] $end
$upscope $end
$scope task dual_rdata $end
$var integer 32 V" j [31:0] $end
$var integer 32 W" total [31:0] $end
$upscope $end
$scope task dual_rdatac $end
$var integer 32 X" j [31:0] $end
$var integer 32 Y" total [31:0] $end
$upscope $end
$scope task dual_read $end
$var reg 8 Z" addr [7:0] $end
$upscope $end
$scope task dual_recv_byte $end
$var integer 32 [" b [31:0] $end
$upscope $end
$scope task dual_send_byte $end
$var reg 8 \" data [7:0] $end
$var integer 32 ]" p [31:0] $end
$upscope $end
$scope task dual_wavegen_read $end
$var reg 8 ^" addr [7:0] $end
$upscope $end
$scope task dual_wavegen_write $end
$var reg 8 _" addr [7:0] $end
$var reg 8 `" data [7:0] $end
$upscope $end
$scope task dual_write $end
$var reg 8 a" addr [7:0] $end
$var reg 8 b" data [7:0] $end
$upscope $end
$scope task enable_dual_mode $end
$upscope $end
$scope task fail_test $end
$var reg 8 c" exp [7:0] $end
$var reg 8 d" got [7:0] $end
$var reg 256 e" name [255:0] $end
$upscope $end
$scope task pass_test $end
$var reg 256 f" name [255:0] $end
$upscope $end
$scope task single_burst_read $end
$var reg 8 g" addr [7:0] $end
$var integer 32 h" j [31:0] $end
$upscope $end
$scope task single_burst_write $end
$var reg 8 i" addr [7:0] $end
$var integer 32 j" j [31:0] $end
$upscope $end
$scope task single_nirs_read $end
$var reg 8 k" addr [7:0] $end
$upscope $end
$scope task single_nirs_write $end
$var reg 8 l" addr [7:0] $end
$var reg 8 m" data [7:0] $end
$upscope $end
$scope task single_rdata $end
$var integer 32 n" j [31:0] $end
$var integer 32 o" total [31:0] $end
$upscope $end
$scope task single_rdatac $end
$var integer 32 p" j [31:0] $end
$var integer 32 q" total [31:0] $end
$upscope $end
$scope task single_read $end
$var reg 8 r" addr [7:0] $end
$upscope $end
$scope task single_recv_byte $end
$var integer 32 s" b [31:0] $end
$upscope $end
$scope task single_send_byte $end
$var reg 8 t" data [7:0] $end
$var integer 32 u" b [31:0] $end
$upscope $end
$scope task single_wavegen_read $end
$var reg 8 v" addr [7:0] $end
$upscope $end
$scope task single_wavegen_write $end
$var reg 8 w" addr [7:0] $end
$var reg 8 x" data [7:0] $end
$upscope $end
$scope task single_write $end
$var reg 8 y" addr [7:0] $end
$var reg 8 z" data [7:0] $end
$upscope $end
$upscope $end
$enddefinitions $end
$comment Show the parameter values. $end
$dumpall
b11000 )"
b10000 ("
b1000 '"
b1000 &"
b11111 J
b10000 I
b1000 H
b10000000 G
b11100000 F
b1100000 E
b1010000 D
b1000000 C
b0 B
b11110000 A
b1110000 @
b10000010 ?
b10 >
b1000000 =
b1100000 <
b100000 ;
b10100000 :
b10000000 9
b0 8
b1110000 7
b110000 6
b1000010 5
b10 4
b1 3
b1000 2
$end
#0
$dumpvars
bx z"
bx y"
bx x"
bx w"
bx v"
bx u"
bx t"
bx s"
bx r"
bx q"
bx p"
bx o"
bx n"
bx m"
bx l"
bx k"
bx j"
bx i"
bx h"
bx g"
bx f"
bx e"
bx d"
bx c"
bx b"
bx a"
bx `"
bx _"
bx ^"
bx ]"
bx \"
bx ["
bx Z"
bx Y"
bx X"
bx W"
bx V"
bx U"
bx T"
bx S"
bx R"
bx Q"
bx P"
bx O"
bx N"
xM"
xL"
bx K"
b0 J"
bx I"
bx H"
xG"
bx F"
bx E"
bx D"
xC"
xB"
bx A"
bx @"
x?"
x>"
x="
x<"
x;"
x:"
x9"
x8"
x7"
x6"
x5"
x4"
x3"
x2"
x1"
bx 0"
bx /"
bx ."
bx -"
x,"
b0 +"
bx *"
x%"
x$"
x#"
0""
bx !"
bx ~
bx }
b0 |
x{
xz
xy
b0 x
b0 w
b0 v
b0 u
b0 t
0s
0r
b10 q
bx p
b1101111010101101101111101110111100000001 o
b10100101 n
b100 m
xl
0k
0j
xi
b11 h
xg
0f
b10 e
b0 d
b0 c
b0 b
b10000 a
b0 `
b0 _
0^
b10 ]
b1101111010101101101111101110111100000001 \
1[
b10100101 Z
zY
zX
1W
b100 V
0U
0T
0S
bx R
0Q
0P
0O
0N
0M
0L
bx K
x1
bx 0
x/
x.
x-
x,
x+
x*
x)
x(
x'
x&
x%
bx $
x#
0"
1!
$end
#5000
0#"
0{
0-
b10000 @"
0#
01
0z
0y
0$"
0.
0i
b10000 }
b100000 ~
b110000 !"
0,
0="
0/
0<"
18"
0?"
0>"
b0 H"
0%"
b111 -"
0,"
b0 E"
b0 0
b0 D"
06"
05"
04"
03"
0g
02"
0l
01"
0B"
b0 $
b0 F"
0%
0&
0)
0(
0'
0*
0L"
0M"
0G"
b0 K"
b0 ."
b0 /"
07"
b100000010000000110000 p
b0 *"
0C"
b0 0"
b0 A"
b0 I"
09"
0+
0;"
0:"
b110101 N"
0[
#31000
0!
b110101 N"
1"
1^
#62000
1!
0"
0^
#93000
0!
b110101 N"
1"
1^
#124000
1!
0"
0^
#155000
0!
b110101 N"
1"
1^
#186000
1!
0"
0^
#217000
1[
0!
b110101 N"
1"
1^
#248000
1!
0"
0^
#279000
z?"
0!
1"
1^
#310000
1!
0"
0^
#341000
0!
1"
1^
#372000
1!
0"
0^
#403000
0!
1"
1^
#434000
1!
0"
0^
#465000
b10100101 z"
b1 y"
0!
1"
1^
#496000
1f
b111 u"
b1 t"
0W
1!
0"
0^
#527000
08"
b1 +"
0!
1"
1^
#558000
0X
1!
0"
0^
#589000
0?"
b0z H"
b110 -"
b10 +"
b110 u"
0!
1"
1^
#620000
1!
0"
0^
#651000
b101 -"
b0z0 H"
b11 +"
b101 u"
0!
1"
1^
#682000
1!
0"
0^
#713000
b0z00 H"
b100 -"
b100 +"
b100 u"
0!
1"
1^
#744000
1!
0"
0^
#775000
b11 -"
b0z000 H"
b101 +"
b11 u"
0!
1"
1^
#806000
1!
0"
0^
#837000
b0z0000 H"
b10 -"
b110 +"
b10 u"
0!
1"
1^
#868000
1!
0"
0^
#899000
b1 -"
b0z00000 H"
b111 +"
b1 u"
0!
1"
1^
#930000
1!
0"
0^
#961000
b0z000000 H"
1%"
b0 -"
zL"
b1000 +"
b0 u"
0!
1"
1^
#992000
z,
z:"
1X
1!
0"
0^
#1023000
0L"
0%"
b111 -"
bz0000000 H"
1?"
b1001 +"
b10000000 t"
b111 u"
0!
1"
1^
#1054000
0,
0:"
1!
0"
0^
#1085000
b1 H"
b110 -"
bz0000000 0
bz0000000 D"
b1010 +"
b110 u"
0!
1"
1^
#1116000
0X
1!
0"
0^
#1147000
1$"
16"
b101 -"
b11 H"
0?"
b1011 +"
b101 u"
0!
1"
1^
#1178000
1!
0"
0^
#1209000
1{
b110 H"
b100 -"
15"
b1100 +"
b100 u"
0!
1"
1^
#1240000
1!
0"
0^
#1271000
b11 -"
b1100 H"
b1101 +"
b11 u"
0!
1"
1^
#1302000
1!
0"
0^
#1333000
b11000 H"
b10 -"
b1110 +"
b10 u"
0!
1"
1^
#1364000
1!
0"
0^
#1395000
b10000 K"
b1 -"
b110000 H"
b1111 +"
b1 u"
0!
1"
1^
#1426000
1!
0"
0^
#1457000
b1100000 H"
1%"
b0 -"
1L"
b100000 K"
b10000 +"
b0 u"
0!
1"
1^
#1488000
1,
1:"
1!
0"
0^
#1519000
1-
b100000 @"
b1 /"
b1 ."
b1000000 K"
0%"
b111 -"
b11000000 H"
b10001 +"
b10100101 t"
b111 u"
0!
1"
1^
#1550000
1X
1!
0"
0^
#1581000
1?"
b10000000 H"
b110 -"
0L"
b10000000 K"
b10010 +"
b110 u"
0!
1"
1^
#1612000
0,
0:"
0X
1!
0"
0^
#1643000
b0 K"
b101 -"
b1 H"
0?"
b10011 +"
b101 u"
0!
1"
1^
#1674000
1X
1!
0"
0^
#1705000
1?"
b10 H"
b100 -"
b10100 +"
b100 u"
0!
1"
1^
#1736000
0X
1!
0"
0^
#1767000
b11 -"
b101 H"
0?"
b10101 +"
b11 u"
0!
1"
1^
#1798000
1!
0"
0^
#1829000
b1010 H"
b10 -"
b10110 +"
b10 u"
0!
1"
1^
#1860000
1X
1!
0"
0^
#1891000
b100000 K"
b1 -"
b10100 H"
1?"
b10111 +"
b1 u"
0!
1"
1^
#1922000
0X
1!
0"
0^
#1953000
0-
0?"
b101001 H"
1%"
b0 -"
b1000000 K"
b11000 +"
b0 u"
0!
1"
1^
#1984000
1X
1!
0"
0^
#2015000
b110000 @"
b10 /"
b10 ."
b10000000 K"
1L"
1B"
0%"
b111 -"
b1010010 H"
1?"
b11001 +"
b0 t"
b111 u"
0!
1"
1^
#2046000
1,
1:"
0X
1!
0"
0^
#2077000
1Q
b1010010 R
bz0000000 K
0?"
b10100101 H"
b110 -"
0B"
b1010010 $
b1010010 F"
1%
0L"
b0 K"
b11010 +"
b110 u"
0!
1"
1^
#2108000
0,
0:"
1!
0"
0^
#2139000
0Q
1L"
0%
b101 -"
b1001010 H"
b11011 +"
b101 u"
0!
1"
1^
#2170000
1,
1:"
1!
0"
0^
#2201000
b10010100 H"
b100 -"
0L"
b11100 +"
b100 u"
0!
1"
1^
#2232000
0,
0:"
1!
0"
0^
#2263000
b11 -"
b101000 H"
b11101 +"
b11 u"
0!
1"
1^
#2294000
1!
0"
0^
#2325000
b1010000 H"
b10 -"
1L"
b11110 +"
b10 u"
0!
1"
1^
#2356000
1,
1:"
1!
0"
0^
#2387000
b110000 K"
0L"
b1 -"
b10100000 H"
b11111 +"
b1 u"
0!
1"
1^
#2418000
0,
0:"
1!
0"
0^
#2449000
b1000000 H"
1%"
b0 -"
1L"
b1100000 K"
b100000 +"
b0 u"
0!
1"
1^
#2480000
1,
1:"
1!
0"
0^
#2511000
b10001 }
b100001 ~
b110001 !"
b10001 @"
b100010010000100110001 p
b1 *"
b0 /"
b11 ."
b11000000 K"
0L"
1B"
1,"
0%"
b111 -"
b10000000 H"
b11111111111111111111111111111111 u"
0!
1"
1^
#2542000
0,
b0 +"
0:"
0f
zX
1W
1!
0"
0^
#2573000
0{
b10000 @"
0$"
b10000 }
b100000 ~
b110000 !"
18"
z?"
b0 H"
0,"
06"
05"
0B"
b10000000 $
b10000000 F"
b10000000 K"
b0 ."
b100000010000000110000 p
b0 *"
0!
1"
1^
#2604000
1!
0"
0^
#2635000
b0 K"
0!
1"
1^
#2666000
1!
0"
0^
#2697000
0!
1"
1^
#2728000
1!
0"
0^
#2759000
0!
1"
1^
#2790000
1!
0"
0^
#2821000
0!
1"
1^
#2852000
1!
0"
0^
#2883000
b1 r"
b10 c
b10 `
b10100101 c"
b1010010 d"
b101010001000011001100000011000101100010001110100010000001110111011100100110111101101110011001110010000001100100011000010111010001100001 e"
0!
1"
1^
#2914000
1f
b111 u"
b1 t"
0W
1!
0"
0^
#2945000
08"
b1 +"
0!
1"
1^
#2976000
0X
1!
0"
0^
#3007000
b110 -"
b0z H"
0?"
b10 +"
b110 u"
0!
1"
1^
#3038000
1!
0"
0^
#3069000
b0z0 H"
b101 -"
b11 +"
b101 u"
0!
1"
1^
#3100000
1!
0"
0^
#3131000
b100 -"
b0z00 H"
b100 +"
b100 u"
0!
1"
1^
#3162000
1!
0"
0^
#3193000
b0z000 H"
b11 -"
b101 +"
b11 u"
0!
1"
1^
#3224000
1!
0"
0^
#3255000
b10 -"
b0z0000 H"
b110 +"
b10 u"
0!
1"
1^
#3286000
1!
0"
0^
#3317000
b0z00000 H"
b1 -"
b111 +"
b1 u"
0!
1"
1^
#3348000
1!
0"
0^
#3379000
zL"
1%"
b0 -"
b0z000000 H"
b1000 +"
b0 u"
0!
1"
1^
#3410000
z,
z:"
1X
1!
0"
0^
#3441000
1?"
bz0000000 H"
0%"
b111 -"
0L"
b1001 +"
b0 t"
b111 u"
0!
1"
1^
#3472000
0,
0:"
0X
1!
0"
0^
#3503000
bz0000000 E"
b110 -"
b1 H"
0?"
b1010 +"
b110 u"
0!
1"
1^
#3534000
1!
0"
0^
#3565000
1$"
b10 H"
b101 -"
16"
b1011 +"
b101 u"
0!
1"
1^
#3596000
1!
0"
0^
#3627000
b100 -"
b100 H"
b1100 +"
b100 u"
0!
1"
1^
#3658000
1!
0"
0^
#3689000
b1000 H"
b11 -"
b1101 +"
b11 u"
0!
1"
1^
#3720000
1!
0"
0^
#3751000
b10 -"
b10000 H"
b1110 +"
b10 u"
0!
1"
1^
#3782000
1!
0"
0^
#3813000
b100000 H"
b1 -"
b10100101 K"
b1111 +"
b1 u"
0!
1"
1^
#3844000
1!
0"
0^
#3875000
b1001010 K"
1L"
1%"
b0 -"
b1000000 H"
b10000 +"
b0 u"
0!
1"
1^
#3906000
1,
1:"
1!
0"
0^
#3937000
b10000000 H"
0%"
b111 -"
0L"
b10010100 K"
b10001 +"
b111 s"
b11111111111111111111111111111111 u"
0!
1"
1^
#3968000
0,
0:"
1!
0"
0^
#3999000
b101000 K"
b110 -"
b0 H"
b10010 +"
b110 s"
0!
1"
1^
#4030000
1!
0"
0^
#4061000
b101 -"
b1010000 K"
b10011 +"
b101 s"
0!
1"
1^
#4092000
1!
0"
0^
#4123000
b10100000 K"
b100 -"
b10100 +"
b100 s"
0!
1"
1^
#4154000
1!
0"
0^
#4185000
b11 -"
b1000000 K"
b10101 +"
b11 s"
0!
1"
1^
#4216000
1!
0"
0^
#4247000
b10000000 K"
b10 -"
b10110 +"
b10 s"
0!
1"
1^
#4278000
1!
0"
0^
#4309000
b1 -"
b10100101 K"
b10111 +"
b1 s"
0!
1"
1^
#4340000
1!
0"
0^
#4371000
b1001010 K"
1%"
b0 -"
b11000 +"
b0 s"
0!
1"
1^
#4402000
1!
0"
0^
#4433000
0%"
b111 -"
1B"
b10010100 K"
b11001 +"
b11111111111111111111111111111111 s"
0!
1"
1^
#4464000
b0 +"
0f
zX
1W
1!
0"
0^
#4495000
0$"
b101000 K"
b0 $
b0 F"
0B"
06"
z?"
18"
0!
1"
1^
#4526000
1!
0"
0^
#4557000
b0 K"
0!
1"
1^
#4588000
1!
0"
0^
#4619000
0!
1"
1^
#4650000
1!
0"
0^
#4681000
0!
1"
1^
#4712000
1!
0"
0^
#4743000
0!
1"
1^
#4774000
1!
0"
0^
#4805000
b0 z"
b0 y"
b1 c"
b100 c
b100 `
bz0000000 d"
b1010100010000110011000000110010011000100011101000100000011011110101111101110010011001000010000001100001011001000110010001110010001000000111011101110010011011110110111001100111 e"
0!
1"
1^
#4836000
1f
b111 u"
0W
1!
0"
0^
#4867000
08"
b1 +"
0!
1"
1^
#4898000
0X
1!
0"
0^
#4929000
0?"
b0z H"
b110 -"
b10 +"
b110 u"
0!
1"
1^
#4960000
1!
0"
0^
#4991000
b101 -"
b0z0 H"
b11 +"
b101 u"
0!
1"
1^
#5022000
1!
0"
0^
#5053000
b0z00 H"
b100 -"
b100 +"
b100 u"
0!
1"
1^
#5084000
1!
0"
0^
#5115000
b11 -"
b0z000 H"
b101 +"
b11 u"
0!
1"
1^
#5146000
1!
0"
0^
#5177000
b0z0000 H"
b10 -"
b110 +"
b10 u"
0!
1"
1^
#5208000
1!
0"
0^
#5239000
b1 -"
b0z00000 H"
b111 +"
b1 u"
0!
1"
1^
#5270000
1!
0"
0^
#5301000
b0z000000 H"
1%"
b0 -"
zL"
b1000 +"
b0 u"
0!
1"
1^
#5332000
z,
z:"
1!
0"
0^
#5363000
0L"
0%"
b111 -"
bz0000000 H"
b1001 +"
b10000000 t"
b111 u"
0!
1"
1^
#5394000
0,
0:"
1X
1!
0"
0^
#5425000
1?"
b0 H"
b110 -"
b1010 +"
b110 u"
0!
1"
1^
#5456000
0X
1!
0"
0^
#5487000
b101 -"
b1 H"
0?"
b1011 +"
b101 u"
0!
1"
1^
#5518000
1!
0"
0^
#5549000
1{
b10 H"
b100 -"
15"
b1100 +"
b100 u"
0!
1"
1^
#5580000
1!
0"
0^
#5611000
b11 -"
b100 H"
b1101 +"
b11 u"
0!
1"
1^
#5642000
1!
0"
0^
#5673000
b1000 H"
b10 -"
b1110 +"
b10 u"
0!
1"
1^
#5704000
1!
0"
0^
#5735000
b10000 K"
1G"
b1 -"
b10000 H"
b1111 +"
b1 u"
0!
1"
1^
#5766000
1!
0"
0^
#5797000
b100000 H"
1%"
b0 -"
b100000 K"
b10000 +"
b0 u"
0!
1"
1^
#5828000
1!
0"
0^
#5859000
1-
b100000 @"
b1 /"
b1 ."
b1000000 K"
0%"
b111 -"
b1000000 H"
b10001 +"
b0 t"
b111 u"
0!
1"
1^
#5890000
1!
0"
0^
#5921000
b10000000 H"
b110 -"
b10000000 K"
b10010 +"
b110 u"
0!
1"
1^
#5952000
1!
0"
0^
#5983000
b0 K"
1L"
b101 -"
b0 H"
b10011 +"
b101 u"
0!
1"
1^
#6014000
1,
1:"
1!
0"
0^
#6045000
b100 -"
0L"
b10100 +"
b100 u"
0!
1"
1^
#6076000
0,
0:"
1!
0"
0^
#6107000
b11 -"
b10101 +"
b11 u"
0!
1"
1^
#6138000
1!
0"
0^
#6169000
1N
b10 -"
1(
b10110 +"
b10 u"
0!
1"
1^
#6200000
1!
0"
0^
#6231000
0N
b100000 K"
0(
b1 -"
b10111 +"
b1 u"
0!
1"
1^
#6262000
1!
0"
0^
#6293000
0-
1%"
b0 -"
b1000000 K"
b11000 +"
b0 u"
0!
1"
1^
#6324000
1!
0"
0^
#6355000
b110000 @"
b10 /"
b10 ."
b10000000 K"
1,"
0%"
b111 -"
b111 u"
0!
1"
1^
#6386000
1!
0"
0^
#6417000
b110 -"
1L"
b0 K"
b110 u"
0!
1"
1^
#6448000
1,
1:"
1!
0"
0^
#6479000
0L"
b101 -"
b101 u"
0!
1"
1^
#6510000
0,
0:"
1!
0"
0^
#6541000
b100 -"
b100 u"
0!
1"
1^
#6572000
1!
0"
0^
#6603000
b11 -"
b11 u"
0!
1"
1^
#6634000
1!
0"
0^
#6665000
b10 -"
b10 u"
0!
1"
1^
#6696000
1!
0"
0^
#6727000
b110000 K"
b1 -"
b1 u"
0!
1"
1^
#6758000
1!
0"
0^
#6789000
1%"
b0 -"
b1100000 K"
b0 u"
0!
1"
1^
#6820000
1!
0"
0^
#6851000
b10001 }
b100001 ~
b110001 !"
b10001 @"
b100010010000100110001 p
b1 *"
b0 /"
b11 ."
b11000000 K"
0%"
b111 -"
b11111111111111111111111111111111 u"
0!
1"
1^
#6882000
b0 +"
0f
zX
1W
1!
0"
0^
#6913000
0{
b10000 @"
b10000 }
b100000 ~
b110000 !"
18"
z?"
0,"
05"
1L"
b10000000 K"
b0 ."
b100000010000000110000 p
b0 *"
0!
1"
1^
#6944000
1!
0"
0^
#6975000
b0 K"
0G"
0L"
0!
1"
1^
#7006000
1!
0"
0^
#7037000
0!
1"
1^
#7068000
1!
0"
0^
#7099000
0!
1"
1^
#7130000
1!
0"
0^
#7161000
0!
1"
1^
#7192000
1!
0"
0^
#7223000
b11111111 z"
b11111111 y"
b101 c
b101 `
b0 c"
b1010010 d"
b10101000100001100110000001100110110000100111010001000000110110101101001011100110110110101100001011101000110001101101000 e"
0!
1"
1^
#7254000
1f
b111 u"
b11111111 t"
0W
1!
0"
0^
#7285000
08"
b1 +"
0!
1"
1^
#7316000
1X
1!
0"
0^
#7347000
b110 -"
b0z H"
1?"
b10 +"
b110 u"
0!
1"
1^
#7378000
1!
0"
0^
#7409000
b0z1 H"
b101 -"
b11 +"
b101 u"
0!
1"
1^
#7440000
1!
0"
0^
#7471000
b100 -"
b0z11 H"
b100 +"
b100 u"
0!
1"
1^
#7502000
1!
0"
0^
#7533000
b0z111 H"
b11 -"
b101 +"
b11 u"
0!
1"
1^
#7564000
1!
0"
0^
#7595000
b10 -"
b0z1111 H"
b110 +"
b10 u"
0!
1"
1^
#7626000
1!
0"
0^
#7657000
b0z11111 H"
b1 -"
b111 +"
b1 u"
0!
1"
1^
#7688000
1!
0"
0^
#7719000
zL"
1%"
b0 -"
b0z111111 H"
b1000 +"
b0 u"
0!
1"
1^
#7750000
z,
z:"
1!
0"
0^
#7781000
bz1111111 H"
0%"
b111 -"
1L"
b1001 +"
b10000000 t"
b111 u"
0!
1"
1^
#7812000
1,
1:"
1!
0"
0^
#7843000
bz1111111 0
bz1111111 D"
b110 -"
b11111111 H"
b1010 +"
b110 u"
0!
1"
1^
#7874000
0X
1!
0"
0^
#7905000
1$"
0?"
b101 -"
16"
b1011 +"
b101 u"
0!
1"
1^
#7936000
1!
0"
0^
#7967000
1{
15"
b100 -"
b11111110 H"
b1100 +"
b100 u"
0!
1"
1^
#7998000
1!
0"
0^
#8029000
b11111100 H"
b11 -"
b1101 +"
b11 u"
0!
1"
1^
#8060000
1!
0"
0^
#8091000
b10 -"
b11111000 H"
b1110 +"
b10 u"
0!
1"
1^
#8122000
1!
0"
0^
#8153000
b11110000 H"
b1 -"
b10000 K"
b1111 +"
b1 u"
0!
1"
1^
#8184000
1!
0"
0^
#8215000
b100000 K"
1%"
b0 -"
b11100000 H"
b10000 +"
b0 u"
0!
1"
1^
#8246000
1!
0"
0^
#8277000
1-
b100000 @"
b11000000 H"
0%"
b111 -"
b1000000 K"
b1 ."
b1 /"
b10001 +"
b11111111 t"
b111 u"
0!
1"
1^
#8308000
1X
1!
0"
0^
#8339000
b10000000 K"
0L"
b110 -"
b10000000 H"
1?"
b10010 +"
b110 u"
0!
1"
1^
#8370000
0,
0:"
1!
0"
0^
#8401000
b1 H"
b101 -"
b0 K"
b10011 +"
b101 u"
0!
1"
1^
#8432000
1!
0"
0^
#8463000
b100 -"
b11 H"
b10100 +"
b100 u"
0!
1"
1^
#8494000
1!
0"
0^
#8525000
b111 H"
b11 -"
b10101 +"
b11 u"
0!
1"
1^
#8556000
1!
0"
0^
#8587000
b10 -"
b1111 H"
b10110 +"
b10 u"
0!
1"
1^
#8618000
1!
0"
0^
#8649000
b11111 H"
b1 -"
b100000 K"
b10111 +"
b1 u"
0!
1"
1^
#8680000
1!
0"
0^
#8711000
0-
b1000000 K"
1%"
b0 -"
b111111 H"
b11000 +"
b0 u"
0!
1"
1^
#8742000
1!
0"
0^
#8773000
b110000 @"
b1111111 H"
0%"
b111 -"
1B"
1L"
b10000000 K"
b10 ."
b10 /"
b11001 +"
b0 t"
b111 u"
0!
1"
1^
#8804000
1,
1:"
0X
1!
0"
0^
#8835000
1Q
b1111111 R
bz1111111 K
b0 K"
1%
b1111111 $
b1111111 F"
0B"
b110 -"
b11111111 H"
0?"
b11010 +"
b110 u"
0!
1"
1^
#8866000
1!
0"
0^
#8897000
0Q
b11111110 H"
b101 -"
0%
b11011 +"
b101 u"
0!
1"
1^
#8928000
1!
0"
0^
#8959000
b100 -"
b11111100 H"
b11100 +"
b100 u"
0!
1"
1^
#8990000
1!
0"
0^
